…
In this step, in the past (see [here](https://wolfemd.github.io/IITA_2021GS/01-cleanTPdata.html#[User_input]_Assign_genos_to_phenos) for an example), I have had to use multiple external flat files and custom code, built over time, to figure out which DNA samples, if any, match eatch field plot. 

With both genotypes and phenotypes derived from the database, this should not be an issue for this tutorial. 


## Check / "detect" experimental designs? 

In this step, in the past, I have not been certain of the experimental designs of the trials I had downloaded. I was also not certain how the designs were represented in the column-names. For this reason, I developed another _ad hoc_ custom code to "detect" the designs. I built the `genomicMateSelectR` function `detectExptDesigns()`. See an example [here](https://wolfemd.github.io/IITA_2021GS/01-cleanTPdata.html#Detect_experimental_designs).

Should not be necessary for the example dataset. However, let's check:


```r
dbdata %>% count(studyName,studyDesign, numberBlocks,replicate, blockNumber, entryType)
#> # A tibble: 224 × 7
#>    studyName  studyDesign numberBlocks replicate blockNumber
#>    <chr>      <chr>              <int>     <int>       <int>
#>  1 19.GS.C1.… Alpha                 NA         1           1
#>  2 19.GS.C1.… Alpha                 NA         1           1
#>  3 19.GS.C1.… Alpha                 NA         2           2
#>  4 19.GS.C1.… Alpha                 NA         2           2
#>  5 19.GS.C1.… Alpha                 NA         3           3
#>  6 19.GS.C1.… Alpha                 NA         3           3
#>  7 19.GS.C2.… Alpha                  6         1           1
#>  8 19.GS.C2.… Alpha                  6         1           1
#>  9 19.GS.C2.… Alpha                  6         1           2
#> 10 19.GS.C2.… Alpha                  6         1           2
#> # … with 214 more rows, and 2 more variables:
#> #   entryType <chr>, n <int>
```
…
