Chapter 12 Predict parental breeding values | Genomic Prediction and Selection Manual
…
Let’s look at the output.

gpreds
#> # A tibble: 1 × 2
#>   gblups             genomicPredOut  
#>   <list>             <list>          
#> 1 <tibble [963 × 6]> <tibble [3 × 4]>

We have a single-row tibble.

To access a simple table listing GEBV for each trait and the selection index:

gpreds$gblups[[1]]
#> # A tibble: 963 × 6
#>    GID                predOf SELIND      DM logFYLD  logDYLD
#>    <chr>              <chr>   <dbl>   <dbl>   <dbl>    <dbl>
#>  1 IITA-TMS-IBA30572  GEBV    -7.85 -0.610   0.0303  0.0348 
#>  2 IITA-TMS-IBA940237 GEBV     1.04  0.0983 -0.0124 -0.00961
#>  3 IITA-TMS-IBA961642 GEBV    15.0   0.808   0.0741  0.0713 
#>  4 IITA-TMS-ONN920168 GEBV     3.65  0.284  -0.0129 -0.0172 
#>  5 IITA-TMS-WAR4080   GEBV    -6.53 -0.529   0.0313  0.0391 
#>  6 IITA-TMS-WAR4092   GEBV    -6.28 -0.513   0.0305  0.0404 
#>  7 IITA-TMS-WAR820249 GEBV     3.33  0.0289  0.0752  0.0699 
#>  8 IITA-TMS-WAR820422 GEBV     4.11  0.0639  0.0831  0.0746 
#>  9 IITA-TMS-WAR940009 GEBV    13.2   0.749   0.0482  0.0480 
#> 10 IITA-TMS-WAR940017 GEBV   -15.3  -1.12    0.0463  0.0240 
#> # … with 953 more rows
…
